{
  "IcoMoonType": "selection",
  "icons": [
    {
      "icon": {
        "paths": [
          "M512 0c54.848 0 416 208.448 443.392 256 27.52 47.552 27.52 464.448 0 512s-388.48 256-443.392 256c-54.912 0-416-208.448-443.52-256-27.328-47.552-27.328-464.448 0-512 27.52-47.552 388.672-256 443.52-256zM609.92 290.048c-6.016 0-11.008 4.928-11.008 11.008v165.312h-173.824v-171.648h29.888c6.016 0 10.88-4.928 10.88-11.008 0-3.968-2.112-7.488-5.248-9.408l-67.136-64.384c-2.048-2.688-6.016-4.672-9.6-4.672s-6.848 1.92-8.832 4.608l-71.68 64.448c-3.072 1.92-5.12 5.376-5.12 9.344 0 6.080 4.864 11.008 10.88 11.008h30.080l0.256 428.16c0 6.144 4.8 11.008 10.88 11.008h63.68c6.016 0 11.008-4.928 11.008-10.88v-170.88h173.824v177.152h-29.888c-6.016 0-10.88 4.928-10.88 11.008 0 3.968 2.048 7.424 5.12 9.344l67.328 64.448c1.92 2.56 6.016 4.672 9.6 4.672s6.784-1.92 8.832-4.672l71.68-64.448c3.072-1.92 5.12-5.376 5.12-9.344 0-6.080-4.928-11.008-10.88-11.008h-30.080l-0.256-428.16c0-6.144-4.864-11.072-10.88-11.072h-63.744z"
        ],
        "attrs": [
          {
            "fill": "rgb(46, 200, 102)"
          }
        ],
        "isMulticolor": false,
        "isMulticolor2": false,
        "tags": [
          "brand",
          "hackerrank"
        ],
        "grid": 0
      },
      "attrs": [
        {
          "fill": "rgb(46, 200, 102)"
        }
      ],
      "properties": {
        "order": 1,
        "id": 0,
        "prevSize": 32,
        "name": "brand",
        "code": 59648
      },
      "setIdx": 0,
      "setId": 2,
      "iconIdx": 0
    }
  ],
  "height": 1024,
  "metadata": {
    "name": "icomoon"
  },
  "preferences": {
    "showGlyphs": true,
    "showQuickUse": true,
    "showQuickUse2": true,
    "showSVGs": true,
    "fontPref": {
      "prefix": "icon-",
      "metadata": {
        "fontFamily": "icomoon"
      },
      "metrics": {
        "emSize": 1024,
        "baseline": 6.25,
        "whitespace": 50
      },
      "embed": false
    },
    "imagePref": {
      "prefix": "icon-",
      "png": true,
      "useClassSelector": true,
      "color": 0,
      "bgColor": 16777215,
      "classSelector": ".icon"
    },
    "historySize": 50,
    "showCodes": true,
    "gridSize": 16
  }
}